{
    "page": 1,
    "total_results": 30,
    "total_pages": 2,
    "results": [{
        "popularity": 0.6,
        "id": 326601,
        "video": false,
        "vote_count": 0,
        "vote_average": 0,
        "title": "Smurfarna - Sankt smurf och draken",
        "release_date": "",
        "original_language": "sv",
        "original_title": "Smurfarna - Sankt smurf och draken",
        "genre_ids": [],
        "backdrop_path": null,
        "adult": false,
        "overview": "",
        "poster_path": null
    }, {
        "popularity": 18.065,
        "vote_count": 1293,
        "video": false,
        "poster_path": "\/mF2FXzZ3EktWoagU4fzoabNsK6J.jpg",
        "id": 77931,
        "adult": false,
        "backdrop_path": "\/xqfnJn8ApELIa1zGLOa3W9q2Ztn.jpg",
        "original_language": "en",
        "original_title": "The Smurfs 2",
        "genre_ids": [16, 35, 14, 10751],
        "title": "The Smurfs 2",
        "vote_average": 5.7,
        "overview": "The evil wizard Gargamel creates a couple of mischievous Smurf-like creatures called the Naughties that he hopes will let him harness the all-powerful, magical Smurf-essence. But when he discovers that only a real Smurf can give him what he wants, and only a secret spell that Smurfette knows can turn the Naughties into real Smurfs, Gargamel kidnaps Smurfette and brings her to Paris, where he has been winning the adoration of millions as the world¹s greatest sorcerer. It's up to Papa, Clumsy, Grouchy, and Vanity to return to our world, reunite with their human friends Patrick and Grace Winslow, and rescue her! Will Smurfette, who has always felt different from the other Smurfs, find a new connection with the Naughties Vexy and Hackus or will the Smurfs convince her that their love for her is True Blue?",
        "release_date": "2013-07-31"
    }, {
        "popularity": 11.18,
        "vote_count": 795,
        "video": false,
        "poster_path": "\/diYAZ6CKUuRAqLYMB2AyVutEFm0.jpg",
        "id": 137116,
        "adult": false,
        "backdrop_path": "\/AeMtzbw7shxtLvwKKqeITabpTrD.jpg",
        "original_language": "en",
        "original_title": "Smurfs: The Lost Village",
        "genre_ids": [12, 16, 35, 10751],
        "title": "Smurfs: The Lost Village",
        "vote_average": 6.2,
        "overview": "In this fully animated, all-new take on the Smurfs, a mysterious map sets Smurfette and her friends Brainy, Clumsy and Hefty on an exciting race through the Forbidden Forest leading to the discovery of the biggest secret in Smurf history.",
        "release_date": "2017-04-07"
    }, {
        "popularity": 17.42,
        "vote_count": 2264,
        "video": false,
        "poster_path": "\/ntP7anZWyi7TxFARKp78bHTLEVr.jpg",
        "id": 41513,
        "adult": false,
        "backdrop_path": "\/wDWtimW82b1Fo2DwkxAt3aCi8KT.jpg",
        "original_language": "en",
        "original_title": "The Smurfs",
        "genre_ids": [12, 16, 35, 14, 10751],
        "title": "The Smurfs",
        "vote_average": 5.7,
        "overview": "When the evil wizard Gargamel chases the tiny blue Smurfs out of their village, they tumble from their magical world and into ours -- in fact, smack dab in the middle of Central Park. Just three apples high and stuck in the Big Apple, the Smurfs must find a way to get back to their village before Gargamel tracks them down.",
        "release_date": "2011-07-29"
    }, {
        "popularity": 2.04,
        "vote_count": 25,
        "video": false,
        "poster_path": "\/drh6WHdu0HC5DXDnoKZLzLoQUeG.jpg",
        "id": 53566,
        "adult": false,
        "backdrop_path": "\/nOCQm1tiZiuO4oUktYYvnioN3bY.jpg",
        "original_language": "fr",
        "original_title": "La Flûte à six schtroumpfs",
        "genre_ids": [12, 16, 35, 14, 10751],
        "title": "The Smurfs and the Magic Flute",
        "vote_average": 6.1,
        "overview": "The evil knight Torchesac, who is at the service of the sinister lord of La Mortaille, gets a very powerful magic flute and uses it for evil purposes. Johan and Pirlouit, assisted by the magician Homnibus, travel to the land of the Smurfs, the only manufacturers of this sort of instrument, to get a new one and battle the usurpers.",
        "release_date": "1983-11-25"
    }, {
        "popularity": 4.645,
        "id": 220845,
        "video": false,
        "vote_count": 26,
        "vote_average": 6.1,
        "title": "The Smurfs: The Legend of Smurfy Hollow",
        "release_date": "2013-09-12",
        "original_language": "en",
        "original_title": "The Smurfs: The Legend of Smurfy Hollow",
        "genre_ids": [35, 16, 10751, 14],
        "backdrop_path": "\/mOwmwzuN1vSb1WhqkXDaHs8CpGT.jpg",
        "adult": false,
        "overview": "When Brainy Smurf is favored to win the annual Smurfberry Hunt for the ninth year in a row, Gutsy Smurf sets out to discover how Brainy wins every year. Gutsy’s investigation takes him into spooky Smurfy Hollow–and right into Gargamel’s trap! Can Brainy and Gutsy, with the help of Smurfette, put aside their rivalry before Gargamel captures them–or worse, they come face-to-face with the legendary ghost, the Headless Horseman?",
        "poster_path": "\/nL40i4g06BqzZyaZNjkvmUyvskh.jpg"
    }, {
        "popularity": 1.763,
        "id": 217333,
        "video": false,
        "vote_count": 6,
        "vote_average": 6,
        "title": "Tis the Season to Be Smurfy",
        "release_date": "1987-12-13",
        "original_language": "en",
        "original_title": "Tis the Season to Be Smurfy",
        "genre_ids": [16],
        "backdrop_path": null,
        "adult": false,
        "overview": "The Smurfs set out to help out an elderly human couple.",
        "poster_path": "\/zD50GZj7McOJkgI7BkqdtRcHPaY.jpg"
    }, {
        "popularity": 6.063,
        "vote_count": 49,
        "video": false,
        "poster_path": "\/w7fz2agpvJ80BmnBoQrF7pe1CGM.jpg",
        "id": 79443,
        "adult": false,
        "backdrop_path": "\/1QZ7vrnMCGXHt5huJRy4ZaUIUac.jpg",
        "original_language": "en",
        "original_title": "The Smurfs: A Christmas Carol",
        "genre_ids": [16, 35, 14, 10751],
        "title": "The Smurfs: A Christmas Carol",
        "vote_average": 6,
        "overview": "At Christmas, Grouchy Smurf behaves badly to everyone and it takes the Ghosts of Christmas Past, Present and Future to teach him to appreciate Christmas.",
        "release_date": "2011-12-01"
    }, {
        "popularity": 0.6,
        "id": 462417,
        "video": false,
        "vote_count": 0,
        "vote_average": 0,
        "title": "The Henry Smurf Project",
        "release_date": "2005-07-13",
        "original_language": "es",
        "original_title": "El proyecto del Pitufo Enrique",
        "genre_ids": [27],
        "backdrop_path": null,
        "adult": false,
        "overview": "El proyecto del Pitufo Enrique is a document about the existence of a mysterious goblin from the province of Catamarca. During the filming of the movie there were some tragic incidents, such as the disappearance of six people or the violent deaths of another three. Some of these incidents were registered on video but couldn't see the light because of the ongoing legal battle between the director and the victim's families opposing its screening. On the contrary, Elvira Serio director of the movie, thinks that what is on the tape could be of great help shedding some light over all the mysteries around this thread. She hopes that her work can serve as a warning as well to all the residents and tourists who often visit that place.",
        "poster_path": "\/9sbRmWuzxnYfXxXuzuJ9wQjMLtl.jpg"
    }, {
        "popularity": 0.6,
        "id": 377858,
        "video": true,
        "vote_count": 0,
        "vote_average": 0,
        "title": "The Smurfs: Season 1, Volume 1",
        "release_date": "2008-02-26",
        "original_language": "en",
        "original_title": "The Smurfs: Season 1, Volume 1",
        "genre_ids": [16, 35, 10751],
        "backdrop_path": null,
        "adult": false,
        "overview": "Follow the exciting early adventures of Brainy, Jokey, Vanity, Grouchy, Handy, Smurfette, Papa Smurf and the rest of the gang as they try to live in peaceful harmony and avoid the dangerous traps of the evil Gargamel and his wicked cat Azrael. This first season of the hit cartoon has the Smurfs confronting a baby dragon, finding an amulet that grants wishes and discovering a magical horn that puts listeners to sleep.",
        "poster_path": "\/xPHi2oCW1ZEDo92FIHDZkvxJOxf.jpg"
    }, {
        "popularity": 0.6,
        "id": 627950,
        "video": false,
        "vote_count": 1,
        "vote_average": 7,
        "title": "Greetings from Planet Smurf",
        "release_date": "2018-06-08",
        "original_language": "fr",
        "original_title": "Bons baisers de la planète Schtroumpf",
        "genre_ids": [99, 10770],
        "backdrop_path": "\/xKNhDe8c4aB6wqAaXlkMww5IYRO.jpg",
        "adult": false,
        "overview": "The Smurfs were created in 1958 by the Belgian comic author Peyo (Pierre Culliford, 1928-1992) and they are one of Belgium's most recognized exports. From Brussels to Los Angeles, via Dubai, a journey into the tiny world of the famous little blue people, from the story of the creation of the original comic to the account of their huge global commercial exploitation.",
        "poster_path": "\/nQ2V0vK4MW0Y18ngyknValplW9t.jpg"
    }, {
        "popularity": 2.632,
        "id": 358148,
        "video": false,
        "vote_count": 7,
        "vote_average": 6,
        "title": "The Smurfic Games",
        "release_date": "1984-05-20",
        "original_language": "en",
        "original_title": "The Smurfic Games",
        "genre_ids": [],
        "backdrop_path": null,
        "adult": false,
        "overview": "The Smurfs engage in athletic competition to settle a dispute between both ends of the village over misquoted compound words, which turns deadly when the medal Clumsy is awarded actually causes an earthquake.",
        "poster_path": "\/1JYqjCoQDVuT59ueszJv9JBtmDh.jpg"
    }, {
        "popularity": 0.6,
        "genre_ids": [16, 10751],
        "video": false,
        "vote_count": 0,
        "original_language": "sv",
        "adult": false,
        "title": "Smurfarna - Smurfarna i Grekland",
        "original_title": "Smurfarna - Smurfarna i Grekland",
        "backdrop_path": null,
        "id": 169208,
        "vote_average": 0,
        "overview": "",
        "poster_path": "\/fJvNenW64fVlYiBkB45t0UUA3oq.jpg"
    }, {
        "popularity": 0.6,
        "id": 515193,
        "video": false,
        "vote_count": 0,
        "vote_average": 0,
        "title": "Dance Music",
        "release_date": "1984-02-24",
        "original_language": "it",
        "original_title": "Dance Music",
        "genre_ids": [10402],
        "backdrop_path": null,
        "adult": false,
        "overview": "AKA as Break Dance and Smurf (1984)  Dir. Vittorio De Sisti  From IMDB: This film, promoted in Germany by Bravo Magazine to exploit the breakdance craze, actually featured very little breakdancing other than some (presumably second unit) footage of the notorious breakdancer, Mr. Robot.",
        "poster_path": "\/t8ikP5cAB8f3GNVZH89mwqoSoRh.jpg"
    }, {
        "popularity": 2.418,
        "id": 358180,
        "video": false,
        "vote_count": 7,
        "vote_average": 6,
        "title": "My Smurfy Valentine",
        "release_date": "1983-02-13",
        "original_language": "en",
        "original_title": "My Smurfy Valentine",
        "genre_ids": [],
        "backdrop_path": null,
        "adult": false,
        "overview": "What could be more smurfy than spending Valentine's Day with the most lovable little blue creatures in all of the forest? In this half-hour animated special from Hanna-Barbera, the residents of Smurf Village cheerfully await Cupid's arrival ... but evil lurks nearby. Can Cupid's arrow make a dent in the stone-hard heart of Gargamel, the evil wizard? Will Smurfette's Prince Smurfing ever arrive?",
        "poster_path": "\/nY5GNSELWG6lkVsUxLu4yvCedPK.jpg"
    }, {
        "popularity": 0.6,
        "id": 465412,
        "video": false,
        "vote_count": 0,
        "vote_average": 0,
        "title": "Here Are the Smurfs",
        "release_date": "1984-03-28",
        "original_language": "en",
        "original_title": "Here Are the Smurfs",
        "genre_ids": [],
        "backdrop_path": null,
        "adult": false,
        "overview": "A compilation of episodes from the first season of Smurfs (1981), including The Smurf's Apprentice and The Astro Smurf, where Papa Smurf narrates the adventures of his blue people often targeted by the evil sorcerer Gargamel.",
        "poster_path": "\/74AlehgydG6RiU1ZiTacCbSDEvk.jpg"
    }, {
        "popularity": 0.6,
        "id": 577935,
        "video": false,
        "vote_count": 0,
        "vote_average": 0,
        "title": "Ta Strumf sto feggari",
        "release_date": "1986-01-26",
        "original_language": "en",
        "original_title": "Ta Strumf sto feggari",
        "genre_ids": [35, 10751, 10402],
        "backdrop_path": null,
        "adult": false,
        "overview": "Greek bootleg smurf movie, with people in smurf costumes.",
        "poster_path": "\/43QHs2SpiRxgL3r5ACMzXHBxdvT.jpg"
    }, {
        "popularity": 2.111,
        "id": 357677,
        "video": false,
        "vote_count": 7,
        "vote_average": 6,
        "title": "The Smurfs Springtime Special",
        "release_date": "1982-04-07",
        "original_language": "en",
        "original_title": "The Smurfs Springtime Special",
        "genre_ids": [16, 10770],
        "backdrop_path": null,
        "adult": false,
        "overview": "The evil wizard Gargamel--who hates spring because it makes the Smurfs happy, and he hates happy--devises a scheme to put Mother Nature to sleep.",
        "poster_path": "\/aJ32MvKBIcLyyOcajlsKJncK96y.jpg"
    }, {
        "popularity": 0.6,
        "id": 169201,
        "video": false,
        "vote_count": 0,
        "vote_average": 0,
        "title": "Smurfarna - Den gyllene smurfen",
        "release_date": "",
        "original_language": "sv",
        "original_title": "Smurfarna - Den gyllene smurfen",
        "genre_ids": [],
        "backdrop_path": null,
        "adult": false,
        "overview": "",
        "poster_path": "\/eSNM25aUyuH48u07HMzS19q7lAh.jpg"
    }, {
        "popularity": 0.6,
        "id": 359992,
        "video": false,
        "vote_count": 0,
        "vote_average": 0,
        "title": "Smurfs",
        "release_date": "",
        "original_language": "pl",
        "original_title": "Smurfs",
        "genre_ids": [],
        "backdrop_path": null,
        "adult": false,
        "overview": "",
        "poster_path": "\/vzaRTNnQxILCBukvJcClD9O02L7.jpg"
    }]
}